90 78 55 54 48 21 12 4 2 2
2 78 55 54 48 21 12 4 90 2
2 2 55 54 48 21 12 4 90 78
2 2 4 54 48 21 12 55 90 78
2 2 4 12 48 21 54 55 90 78
2 2 4 12 21 48 54 55 90 78
2 2 4 12 21 48 54 55 90 78
2 2 4 12 21 48 54 55 90 78
2 2 4 12 21 48 54 55 90 78
2 2 4 12 21 48 54 55 78 90
2 2 4 12 21 48 54 55 78 90
25
